LevelAsset(
    bricks: [
        [None, Normal, Normal, Normal, Normal, Normal, Normal, Normal, Normal, Normal, Normal, Normal, Normal, Normal, Normal, Normal, Normal, Normal],
        [None, Normal, Normal, Normal, Normal, Normal, Normal, Normal, Normal, Normal, Normal, Normal, Normal, Normal, Normal, Normal, Normal, Normal],
        [None, Normal, Normal, Normal, Normal, Normal, Normal, Normal, Normal, Normal, Normal, Normal, Normal, Normal, Normal, Normal, Normal, Normal],
        [None, Normal, Normal, Normal, Normal, Normal, Normal, Normal, Normal, Normal, Normal, Normal, Normal, Normal, Normal, Normal, Normal, Normal],
    ],
)
